Bayesian Workflow Diary
…
The PSIS-LOO plot shows that our posterior rely on some certain data points too much, because many of them are over 0.7, indicating some overfitting issues.

powerscale_sensitivity(fit)

Sensitivity based on cjs_dist:
# A tibble: 53 × 4
   variable                               prior likelihood diagnosis          
   <chr>                                  <dbl>      <dbl> <chr>              
 1 b_Intercept                          0.0549      0.0664 prior-data conflict
 2 b_time                               0.0709      0.198  prior-data conflict
 3 b_mdur                               0.106       0.0905 prior-data conflict
 4 b_mbase                              0.00578     0.0507 -                  
 5 sd_study__Intercept                  0.00879     0.225  -                  
 6 sigma                                0.00645     1.10   -                  
 7 Intercept                            0.0174      0.0834 -                  
 8 r_study[Alegret.(2001),Intercept]    0.0233      0.191  -                  
 9 r_study[Barichella.(2003),Intercept] 0.00361     0.130  -                  
10 r_study[Berney.(2002),Intercept]     0.00908     0.177  -                  
# ℹ 43 more rows
…
